%YAML 1.1
%TAG !u! tag:unity3d.com,2011:
--- !u!74 &7400000
AnimationClip:
  m_ObjectHideFlags: 0
  m_CorrespondingSourceObject: {fileID: 0}
  m_PrefabInstance: {fileID: 0}
  m_PrefabAsset: {fileID: 0}
  m_Name: assistant_walk
  serializedVersion: 6
  m_Legacy: 0
  m_Compressed: 0
  m_UseHighQualityCurve: 1
  m_RotationCurves: []
  m_CompressedRotationCurves: []
  m_EulerCurves: []
  m_PositionCurves: []
  m_ScaleCurves: []
  m_FloatCurves: []
  m_PPtrCurves:
  - curve:
    - time: 0
      value: {fileID: 8718662688335723577, guid: c766d23852a7a4e49973835a1a262636, type: 3}
    - time: 0.11111111
      value: {fileID: 8521970672647521072, guid: c766d23852a7a4e49973835a1a262636, type: 3}
    - time: 0.22222222
      value: {fileID: 5897434917796504188, guid: c766d23852a7a4e49973835a1a262636, type: 3}
    - time: 0.33333334
      value: {fileID: -4985233338237002688, guid: c766d23852a7a4e49973835a1a262636, type: 3}
    - time: 0.44444445
      value: {fileID: -4974023591665521396, guid: c766d23852a7a4e49973835a1a262636, type: 3}
    - time: 0.5555556
      value: {fileID: -2046775170464692814, guid: c766d23852a7a4e49973835a1a262636, type: 3}
    - time: 0.6666667
      value: {fileID: -2164399596303878855, guid: c766d23852a7a4e49973835a1a262636, type: 3}
    - time: 0.7777778
      value: {fileID: 1117573697473049654, guid: c766d23852a7a4e49973835a1a262636, type: 3}
    - time: 0.8888889
      value: {fileID: -1129650332686107979, guid: c766d23852a7a4e49973835a1a262636, type: 3}
    - time: 1
      value: {fileID: 457258836239316695, guid: c766d23852a7a4e49973835a1a262636, type: 3}
    - time: 1.1111112
      value: {fileID: -5488269722856668728, guid: c766d23852a7a4e49973835a1a262636, type: 3}
    - time: 1.2222222
      value: {fileID: -8070636341010668844, guid: c766d23852a7a4e49973835a1a262636, type: 3}
    - time: 1.3333334
      value: {fileID: 4705836138423384632, guid: c766d23852a7a4e49973835a1a262636, type: 3}
    - time: 1.4444444
      value: {fileID: -8402902380905934182, guid: c766d23852a7a4e49973835a1a262636, type: 3}
    - time: 1.5555556
      value: {fileID: 6683847355741309521, guid: c766d23852a7a4e49973835a1a262636, type: 3}
    - time: 1.6666666
      value: {fileID: 146859015829697490, guid: c766d23852a7a4e49973835a1a262636, type: 3}
    - time: 1.7777778
      value: {fileID: -9038123742549160206, guid: c766d23852a7a4e49973835a1a262636, type: 3}
    - time: 1.8888888
      value: {fileID: -81292657504618183, guid: c766d23852a7a4e49973835a1a262636, type: 3}
    - time: 2
      value: {fileID: -2082284858361691414, guid: c766d23852a7a4e49973835a1a262636, type: 3}
    - time: 2.1111112
      value: {fileID: -8377484053790546095, guid: c766d23852a7a4e49973835a1a262636, type: 3}
    - time: 2.2222223
      value: {fileID: -5131110589172605634, guid: c766d23852a7a4e49973835a1a262636, type: 3}
    - time: 2.3333333
      value: {fileID: 5409280441410476168, guid: c766d23852a7a4e49973835a1a262636, type: 3}
    - time: 2.4444444
      value: {fileID: -2931475014811556139, guid: c766d23852a7a4e49973835a1a262636, type: 3}
    - time: 2.5555556
      value: {fileID: 9057149900544939553, guid: c766d23852a7a4e49973835a1a262636, type: 3}
    - time: 2.6666667
      value: {fileID: -1181603672600882403, guid: c766d23852a7a4e49973835a1a262636, type: 3}
    - time: 2.7777777
      value: {fileID: -5822159977051688155, guid: c766d23852a7a4e49973835a1a262636, type: 3}
    - time: 2.8888888
      value: {fileID: 4925110477424820871, guid: c766d23852a7a4e49973835a1a262636, type: 3}
    - time: 3
      value: {fileID: -7252642802121666829, guid: c766d23852a7a4e49973835a1a262636, type: 3}
    - time: 3.1111112
      value: {fileID: -5759673715325508990, guid: c766d23852a7a4e49973835a1a262636, type: 3}
    - time: 3.2222223
      value: {fileID: -8925733153153223807, guid: c766d23852a7a4e49973835a1a262636, type: 3}
    - time: 3.3333333
      value: {fileID: -979908687632363542, guid: c766d23852a7a4e49973835a1a262636, type: 3}
    - time: 3.4444444
      value: {fileID: 4968598425834151579, guid: c766d23852a7a4e49973835a1a262636, type: 3}
    - time: 3.5555556
      value: {fileID: -887024630457387787, guid: c766d23852a7a4e49973835a1a262636, type: 3}
    - time: 3.6666667
      value: {fileID: -1583502391214943297, guid: c766d23852a7a4e49973835a1a262636, type: 3}
    - time: 3.7777777
      value: {fileID: 8316964024327140160, guid: c766d23852a7a4e49973835a1a262636, type: 3}
    - time: 3.8888888
      value: {fileID: 3970497250716541583, guid: c766d23852a7a4e49973835a1a262636, type: 3}
    attribute: m_Sprite
    path: 
    classID: 212
    script: {fileID: 0}
  m_SampleRate: 9
  m_WrapMode: 0
  m_Bounds:
    m_Center: {x: 0, y: 0, z: 0}
    m_Extent: {x: 0, y: 0, z: 0}
  m_ClipBindingConstant:
    genericBindings:
    - serializedVersion: 2
      path: 0
      attribute: 0
      script: {fileID: 0}
      typeID: 212
      customType: 23
      isPPtrCurve: 1
    pptrCurveMapping:
    - {fileID: 8718662688335723577, guid: c766d23852a7a4e49973835a1a262636, type: 3}
    - {fileID: 8521970672647521072, guid: c766d23852a7a4e49973835a1a262636, type: 3}
    - {fileID: 5897434917796504188, guid: c766d23852a7a4e49973835a1a262636, type: 3}
    - {fileID: -4985233338237002688, guid: c766d23852a7a4e49973835a1a262636, type: 3}
    - {fileID: -4974023591665521396, guid: c766d23852a7a4e49973835a1a262636, type: 3}
    - {fileID: -2046775170464692814, guid: c766d23852a7a4e49973835a1a262636, type: 3}
    - {fileID: -2164399596303878855, guid: c766d23852a7a4e49973835a1a262636, type: 3}
    - {fileID: 1117573697473049654, guid: c766d23852a7a4e49973835a1a262636, type: 3}
    - {fileID: -1129650332686107979, guid: c766d23852a7a4e49973835a1a262636, type: 3}
    - {fileID: 457258836239316695, guid: c766d23852a7a4e49973835a1a262636, type: 3}
    - {fileID: -5488269722856668728, guid: c766d23852a7a4e49973835a1a262636, type: 3}
    - {fileID: -8070636341010668844, guid: c766d23852a7a4e49973835a1a262636, type: 3}
    - {fileID: 4705836138423384632, guid: c766d23852a7a4e49973835a1a262636, type: 3}
    - {fileID: -8402902380905934182, guid: c766d23852a7a4e49973835a1a262636, type: 3}
    - {fileID: 6683847355741309521, guid: c766d23852a7a4e49973835a1a262636, type: 3}
    - {fileID: 146859015829697490, guid: c766d23852a7a4e49973835a1a262636, type: 3}
    - {fileID: -9038123742549160206, guid: c766d23852a7a4e49973835a1a262636, type: 3}
    - {fileID: -81292657504618183, guid: c766d23852a7a4e49973835a1a262636, type: 3}
    - {fileID: -2082284858361691414, guid: c766d23852a7a4e49973835a1a262636, type: 3}
    - {fileID: -8377484053790546095, guid: c766d23852a7a4e49973835a1a262636, type: 3}
    - {fileID: -5131110589172605634, guid: c766d23852a7a4e49973835a1a262636, type: 3}
    - {fileID: 5409280441410476168, guid: c766d23852a7a4e49973835a1a262636, type: 3}
    - {fileID: -2931475014811556139, guid: c766d23852a7a4e49973835a1a262636, type: 3}
    - {fileID: 9057149900544939553, guid: c766d23852a7a4e49973835a1a262636, type: 3}
    - {fileID: -1181603672600882403, guid: c766d23852a7a4e49973835a1a262636, type: 3}
    - {fileID: -5822159977051688155, guid: c766d23852a7a4e49973835a1a262636, type: 3}
    - {fileID: 4925110477424820871, guid: c766d23852a7a4e49973835a1a262636, type: 3}
    - {fileID: -7252642802121666829, guid: c766d23852a7a4e49973835a1a262636, type: 3}
    - {fileID: -5759673715325508990, guid: c766d23852a7a4e49973835a1a262636, type: 3}
    - {fileID: -8925733153153223807, guid: c766d23852a7a4e49973835a1a262636, type: 3}
    - {fileID: -979908687632363542, guid: c766d23852a7a4e49973835a1a262636, type: 3}
    - {fileID: 4968598425834151579, guid: c766d23852a7a4e49973835a1a262636, type: 3}
    - {fileID: -887024630457387787, guid: c766d23852a7a4e49973835a1a262636, type: 3}
    - {fileID: -1583502391214943297, guid: c766d23852a7a4e49973835a1a262636, type: 3}
    - {fileID: 8316964024327140160, guid: c766d23852a7a4e49973835a1a262636, type: 3}
    - {fileID: 3970497250716541583, guid: c766d23852a7a4e49973835a1a262636, type: 3}
  m_AnimationClipSettings:
    serializedVersion: 2
    m_AdditiveReferencePoseClip: {fileID: 0}
    m_AdditiveReferencePoseTime: 0
    m_StartTime: 0
    m_StopTime: 4
    m_OrientationOffsetY: 0
    m_Level: 0
    m_CycleOffset: 0
    m_HasAdditiveReferencePose: 0
    m_LoopTime: 0
    m_LoopBlend: 0
    m_LoopBlendOrientation: 0
    m_LoopBlendPositionY: 0
    m_LoopBlendPositionXZ: 0
    m_KeepOriginalOrientation: 0
    m_KeepOriginalPositionY: 1
    m_KeepOriginalPositionXZ: 0
    m_HeightFromFeet: 0
    m_Mirror: 0
  m_EditorCurves: []
  m_EulerEditorCurves: []
  m_HasGenericRootTransform: 0
  m_HasMotionFloatCurves: 0
  m_Events: []
