%YAML 1.1
%TAG !u! tag:unity3d.com,2011:
--- !u!221 &22100000
AnimatorOverrideController:
  m_ObjectHideFlags: 0
  m_CorrespondingSourceObject: {fileID: 0}
  m_PrefabInstance: {fileID: 0}
  m_PrefabAsset: {fileID: 0}
  m_Name: Male 2 Card
  m_Controller: {fileID: 9100000, guid: 4810470afc48a2c499b6e9aecab84fc5, type: 2}
  m_Clips:
  - m_OriginalClip: {fileID: 7400000, guid: 5e9e4e3e0d9305747a8233203b4df64a, type: 2}
    m_OverrideClip: {fileID: 7400000, guid: 43c6a238317092c45ad294c7e1270c58, type: 2}
  - m_OriginalClip: {fileID: 7400000, guid: 5852d03e8e3b70a44b496caf8dc5ad08, type: 2}
    m_OverrideClip: {fileID: 7400000, guid: 49fb10cd6806625458d3c8f1494ca092, type: 2}
