%YAML 1.1
%TAG !u! tag:unity3d.com,2011:
--- !u!114 &11400000
MonoBehaviour:
  m_ObjectHideFlags: 0
  m_CorrespondingSourceObject: {fileID: 0}
  m_PrefabInstance: {fileID: 0}
  m_PrefabAsset: {fileID: 0}
  m_GameObject: {fileID: 0}
  m_Enabled: 1
  m_EditorHideFlags: 0
  m_Script: {fileID: 11500000, guid: cf6ff079bfd5bf14f8566ddff7730e17, type: 3}
  m_Name: 2.2.1
  m_EditorClassIdentifier: 
  section: 2.2
  number: 1
  line: The goo pipe is broken! You're going to have to throw something at it.
  record: {fileID: 8300000, guid: fa1a115bcd49ec34d9c4be06294d2246, type: 3}
  autoPlay: 0
  interrupt: 1
  afterPlay: 2
  delay: 0
